{
  "name": "baldurmen-borg",
  "version": "1.1.3",
  "author": "Louis-Philippe Véronneau",
  "summary": "Simple puppet module to configure backups with borg.",
  "license": "GPL-3.0",
  "source": "https://gitlab.com/baldurmen/puppet-borg",
  "project_page": "https://gitlab.com/baldurmen/puppet-borg",
  "issues_url": "https://gitlab.com/baldurmen/puppet-borg/issues",
  "operatingsystem_support": [
    {
      "operatingsystem": "Debian",
      "operatingsystemrelease": [
        "12"
      ]
    }
  ],
  "dependencies": [],
  "requirements": [
    {
      "name": "puppet",
      "version_requirement": ">= 5.5 < 9.0"
    }
  ],
  "description": "This module configures a backup script using borg and setups a cron job accordingly. The design of this module is modular: you can call the borg::backup define as many times you want to create different backup schemes."
}
